{
  "ChildViewId": null,
  "ModelFieldId": "00fcdda1-d4de-4ead-938d-91941f07b67c",
  "OwnerId": null,
  "ViewId": "11e42801-38f9-4e98-8b43-00f71444397d",
  "breakAfter": null,
  "canOrderBy": null,
  "canUpdate": null,
  "class": "is-2",
  "createdAt": "2021-01-23T14:36:20.424Z",
  "deletedAt": null,
  "descriptionColumn": null,
  "filters": null,
  "findType": null,
  "format": null,
  "helperTextLabelKey": null,
  "id": "1b2b7703-4136-4a42-bc9a-a6c85d7e798c",
  "include": null,
  "labelKey": "phone",
  "mask": null,
  "order": "3",
  "placeholder": null,
  "required": null,
  "updatedAt": "2021-01-23T14:36:20.424Z",
  "valueColumn": null
}