{
  "ChildViewId": null,
  "ModelFieldId": "943e890d-9269-4b92-ae23-a2265da5bbdf",
  "OwnerId": null,
  "ViewId": "75123032-b4dc-44f9-b57f-05142e7290fb",
  "breakAfter": null,
  "canOrderBy": null,
  "canUpdate": null,
  "class": "is-2",
  "createdAt": "2020-11-14T22:24:42.057Z",
  "deletedAt": null,
  "descriptionColumn": null,
  "filters": null,
  "findType": null,
  "format": null,
  "helperTextLabelKey": null,
  "id": "b2526b35-c0c0-4473-9bec-86bc958512e3",
  "include": null,
  "labelKey": "RoleId",
  "mask": null,
  "order": "0",
  "placeholder": null,
  "required": null,
  "updatedAt": "2020-11-14T22:24:42.057Z",
  "valueColumn": null
}