{
  "ModelId": "9c16a857-9808-4de0-9362-48b29f9e5f79",
  "OwnerId": "2cd40d9b-e4b9-41b2-9dc9-c2e9052f4cfc",
  "createdAt": "2020-08-28T12:10:49.050Z",
  "default": null,
  "deletedAt": null,
  "id": "a0f689f7-f614-49db-8a29-94ec77979a97",
  "length": 255,
  "modelFieldType": "DataTypes.STRING",
  "name": "format",
  "selectOptions": null,
  "targetModel": null,
  "targetModelAlias": null,
  "type": "string",
  "updatedAt": "2020-12-25T21:55:07.553Z"
}