{
  "ModelId": "790a8062-854b-42a2-b13f-7559a5c6b9b0",
  "OwnerId": "2cd40d9b-e4b9-41b2-9dc9-c2e9052f4cfc",
  "createdAt": "2020-11-14T22:24:41.990Z",
  "default": null,
  "deletedAt": null,
  "id": "7e59a1a1-e9f5-4c89-8444-51727802b7d5",
  "length": null,
  "modelFieldType": "DataTypes.DATE",
  "name": "deletedAt",
  "selectOptions": null,
  "targetModel": null,
  "targetModelAlias": null,
  "type": "datetime",
  "updatedAt": "2020-11-14T22:24:42.033Z"
}