{
  "ModelId": "7b6a5206-e3a7-4f9f-a2bc-462253cf3b8a",
  "OwnerId": "2cd40d9b-e4b9-41b2-9dc9-c2e9052f4cfc",
  "createdAt": "2020-08-28T12:10:49.037Z",
  "default": null,
  "deletedAt": null,
  "id": "d3ba7d04-f9d3-466f-90d7-9ddc772793c5",
  "length": null,
  "modelFieldType": null,
  "name": "ViewFields",
  "selectOptions": null,
  "targetModel": "ViewField",
  "targetModelAlias": "ViewField",
  "type": "hasMany",
  "updatedAt": "2020-11-15T05:45:43.360Z"
}