{
  "ChildViewId": null,
  "ModelFieldId": "e13697a0-195e-4196-8873-a8cae3f52c5e",
  "OwnerId": "2cd40d9b-e4b9-41b2-9dc9-c2e9052f4cfc",
  "ViewId": "9cb74854-e757-4d4f-8925-9908db897ba3",
  "breakAfter": false,
  "canOrderBy": false,
  "canUpdate": false,
  "class": "is-2",
  "createdAt": "2020-08-28T12:10:49.144Z",
  "deletedAt": null,
  "descriptionColumn": null,
  "filters": null,
  "findType": null,
  "format": null,
  "helperTextLabelKey": "help_modelField_name",
  "id": "e022c49f-ef23-4cd3-8616-5c4d2cb98d21",
  "include": null,
  "labelKey": "name",
  "mask": null,
  "order": "0",
  "placeholder": null,
  "required": false,
  "updatedAt": "2020-12-30T17:13:21.136Z",
  "valueColumn": null
}