{
  "ModelId": "5abcd236-670e-436f-81c7-3c3e44a5e270",
  "OwnerId": "2cd40d9b-e4b9-41b2-9dc9-c2e9052f4cfc",
  "createdAt": "2020-08-29T14:10:34.648Z",
  "default": null,
  "deletedAt": null,
  "id": "53cf81c8-8953-4f1e-9b29-b31624b36a18",
  "length": null,
  "modelFieldType": "DataTypes.STRING",
  "name": "reference",
  "selectOptions": null,
  "targetModel": null,
  "targetModelAlias": null,
  "type": "string",
  "updatedAt": "2020-11-15T05:27:59.409Z"
}