{
  "ModelId": "720b8955-111e-4e48-9c02-dd38471d6ab0",
  "OwnerId": "2cd40d9b-e4b9-41b2-9dc9-c2e9052f4cfc",
  "createdAt": "2021-01-23T14:36:20.323Z",
  "deletedAt": null,
  "id": "223989da-74a5-4573-ab96-a9c469521d01",
  "rule": null,
  "updatedAt": "2021-01-23T14:36:20.385Z"
}