{
  "ModelId": "805d3256-cfbc-4df2-be79-1177e6eabeb1",
  "OwnerId": "2cd40d9b-e4b9-41b2-9dc9-c2e9052f4cfc",
  "createdAt": "2020-11-19T09:15:58.380Z",
  "default": null,
  "deletedAt": null,
  "id": "c5edc521-6a22-4c6d-95b9-d598580dc2ab",
  "length": null,
  "modelFieldType": null,
  "name": "OwnerId",
  "selectOptions": null,
  "targetModel": "User",
  "targetModelAlias": "Owner",
  "type": "belongsTo",
  "updatedAt": "2020-12-03T21:47:21.390Z"
}