{
  "OwnerId": null,
  "ViewId": "91c6da08-a1cc-4478-be07-b78a3ab90b65",
  "class": "is-link is-light",
  "createdAt": "2020-11-14T22:24:42.050Z",
  "deletedAt": null,
  "id": "1bc4f6c8-a517-4de9-bbc1-20d3290b91a5",
  "labelKey": "back",
  "order": "1",
  "params": null,
  "position": "top left",
  "slug": "/model_permission",
  "type": "navigation",
  "updatedAt": "2020-11-14T22:24:42.050Z"
}