{
  "OwnerId": null,
  "ViewId": "e7565785-4b86-4e3c-8bc2-6a628dabbdb3",
  "class": "has-text-danger",
  "createdAt": "2020-08-29T14:10:34.737Z",
  "deletedAt": null,
  "id": "abd46efe-721f-4e37-aa39-9e3d5e242428",
  "labelKey": "remove",
  "order": "2",
  "params": {
    "id": ":id:"
  },
  "position": null,
  "slug": null,
  "type": "delete",
  "updatedAt": "2020-08-29T14:23:40.498Z"
}