{
  "ModelId": "6a70bba5-a02d-4943-b559-4cc5862d8e99",
  "OwnerId": null,
  "createdAt": "2020-08-28T12:10:49.076Z",
  "default": null,
  "deletedAt": null,
  "id": "38ad9a03-ce95-4448-86b6-b2b71084bd65",
  "length": 255,
  "modelFieldType": "DataTypes.STRING",
  "name": "position",
  "selectOptions": null,
  "targetModel": null,
  "targetModelAlias": null,
  "type": "string",
  "updatedAt": "2020-08-28T12:10:49.076Z"
}