{
  "ModelId": "720b8955-111e-4e48-9c02-dd38471d6ab0",
  "OwnerId": "2cd40d9b-e4b9-41b2-9dc9-c2e9052f4cfc",
  "createdAt": "2021-01-23T14:36:20.303Z",
  "default": null,
  "deletedAt": null,
  "id": "2fecc681-b9ee-478f-be10-546ab2853f03",
  "length": null,
  "modelFieldType": "DataTypes.DATE",
  "name": "createdAt",
  "selectOptions": null,
  "targetModel": null,
  "targetModelAlias": null,
  "type": "datetime",
  "updatedAt": "2021-01-23T14:36:20.370Z"
}