{
  "ModelId": "720b8955-111e-4e48-9c02-dd38471d6ab0",
  "OwnerId": "2cd40d9b-e4b9-41b2-9dc9-c2e9052f4cfc",
  "createdAt": "2021-01-23T14:36:20.294Z",
  "default": null,
  "deletedAt": null,
  "id": "f1c89d5f-fe4c-4d64-bf8c-de0b751fc37e",
  "length": null,
  "modelFieldType": "DataTypes.TEXT",
  "name": "address",
  "selectOptions": null,
  "targetModel": null,
  "targetModelAlias": null,
  "type": "text",
  "updatedAt": "2021-01-23T14:36:20.358Z"
}