{
  "OwnerId": "2cd40d9b-e4b9-41b2-9dc9-c2e9052f4cfc",
  "ViewId": "6460f9f3-0c77-4f38-8eba-e39cb5668e64",
  "class": "is-link",
  "createdAt": "2020-11-14T22:13:53.954Z",
  "deletedAt": null,
  "id": "b29c3f5c-bef1-42b8-ba75-73650a62ac7a",
  "labelKey": "edit",
  "order": "1",
  "params": null,
  "position": null,
  "slug": "/view_permission_form/:id:",
  "type": "navigation",
  "updatedAt": "2020-12-25T18:43:07.465Z"
}