{
  "ChildViewId": null,
  "ModelFieldId": "b8219adb-a553-45d9-a3bd-1b9709f3c7c6",
  "OwnerId": "2cd40d9b-e4b9-41b2-9dc9-c2e9052f4cfc",
  "ViewId": "84c403ef-e7b3-42d5-bce4-e6ad0d07f8ce",
  "breakAfter": null,
  "canOrderBy": null,
  "canUpdate": null,
  "class": null,
  "createdAt": "2020-12-25T19:02:01.733Z",
  "deletedAt": null,
  "descriptionColumn": null,
  "filters": null,
  "findType": null,
  "format": null,
  "helperTextLabelKey": null,
  "id": "a27ecebc-461c-4417-b646-54402c87ec3c",
  "include": null,
  "labelKey": "modelName",
  "mask": null,
  "order": "3",
  "placeholder": null,
  "required": null,
  "updatedAt": "2020-12-25T19:02:01.801Z",
  "valueColumn": null
}