{
  "ChildViewId": null,
  "ModelFieldId": "2dc02bf6-7345-46f5-b432-90dee358ac0f",
  "OwnerId": "2cd40d9b-e4b9-41b2-9dc9-c2e9052f4cfc",
  "ViewId": "84c403ef-e7b3-42d5-bce4-e6ad0d07f8ce",
  "breakAfter": null,
  "canOrderBy": null,
  "canUpdate": null,
  "class": "is-2",
  "createdAt": "2020-08-26T23:54:16.288Z",
  "deletedAt": null,
  "descriptionColumn": null,
  "filters": null,
  "findType": null,
  "format": null,
  "helperTextLabelKey": null,
  "id": "a31bd2e8-43b2-432a-a955-ff04b8e496d2",
  "include": null,
  "labelKey": "path",
  "mask": null,
  "order": "2",
  "placeholder": null,
  "required": null,
  "updatedAt": "2020-12-25T19:02:01.800Z",
  "valueColumn": null
}