{
  "ModelId": "fc30b20c-aeb5-4790-a694-87b874cbaf98",
  "OwnerId": null,
  "createdAt": "2020-08-28T12:10:48.944Z",
  "default": null,
  "deletedAt": null,
  "id": "a8c27708-945a-4095-86b8-74930141e4db",
  "length": null,
  "modelFieldType": "DataTypes.DATE",
  "name": "createdAt",
  "selectOptions": null,
  "targetModel": null,
  "targetModelAlias": null,
  "type": "datetime",
  "updatedAt": "2020-11-11T12:21:58.876Z"
}