{
  "ChildViewId": null,
  "ModelFieldId": "eb096869-c1c5-4325-8712-a81a41159f18",
  "OwnerId": "2cd40d9b-e4b9-41b2-9dc9-c2e9052f4cfc",
  "ViewId": "8934a4e8-58f9-44ca-85ac-97843f634929",
  "breakAfter": false,
  "canOrderBy": false,
  "canUpdate": true,
  "class": "is-2",
  "createdAt": "2020-08-28T12:10:49.182Z",
  "deletedAt": null,
  "descriptionColumn": "",
  "filters": null,
  "findType": "",
  "format": "",
  "helperTextLabelKey": null,
  "id": "436ef12d-275b-4460-a4dc-6aeec2e02439",
  "include": null,
  "labelKey": "class",
  "mask": "",
  "order": "5",
  "placeholder": "",
  "required": false,
  "updatedAt": "2020-12-25T21:35:36.704Z",
  "valueColumn": ""
}