{
  "OwnerId": "2cd40d9b-e4b9-41b2-9dc9-c2e9052f4cfc",
  "ViewId": "28e36655-1225-45dd-8060-4a4f455a6fb4",
  "class": "is-link is-light",
  "createdAt": "2020-08-28T12:10:49.100Z",
  "deletedAt": null,
  "id": "bc50efe8-cc39-49d0-9c2b-4969104f1fa6",
  "labelKey": "back",
  "order": "1",
  "params": null,
  "position": "top left",
  "slug": "/models",
  "type": "navigation",
  "updatedAt": "2020-12-25T22:09:15.174Z"
}