{
  "ModelId": "72c405ec-6078-4753-bf41-c6b774131ca8",
  "OwnerId": "2cd40d9b-e4b9-41b2-9dc9-c2e9052f4cfc",
  "createdAt": "2020-08-28T12:10:49.024Z",
  "default": null,
  "deletedAt": null,
  "id": "24c279f1-ee6d-441f-96d3-0027a930c69f",
  "length": 255,
  "modelFieldType": "DataTypes.STRING",
  "name": "targetModel",
  "selectOptions": null,
  "targetModel": null,
  "targetModelAlias": null,
  "type": "string",
  "updatedAt": "2020-12-25T21:54:54.046Z"
}