{
  "ChildViewId": null,
  "ModelFieldId": "797e8975-e511-455c-8d60-adea24819263",
  "OwnerId": "2cd40d9b-e4b9-41b2-9dc9-c2e9052f4cfc",
  "ViewId": "07ba578b-e244-43dc-be4e-c8244668a303",
  "breakAfter": null,
  "canOrderBy": null,
  "canUpdate": null,
  "class": null,
  "createdAt": "2020-08-28T12:10:48.992Z",
  "deletedAt": null,
  "descriptionColumn": null,
  "filters": null,
  "findType": null,
  "format": null,
  "helperTextLabelKey": null,
  "id": "2b9859ed-60de-485b-bab2-034a1a329cab",
  "include": null,
  "labelKey": "name",
  "mask": null,
  "order": "0",
  "placeholder": "Digite o nome aqui",
  "required": null,
  "updatedAt": "2020-12-25T18:42:05.382Z",
  "valueColumn": null
}