{
  "ChildViewId": null,
  "ModelFieldId": "2e86bb69-7026-46e7-976a-ef65ab1b6e7c",
  "OwnerId": "2cd40d9b-e4b9-41b2-9dc9-c2e9052f4cfc",
  "ViewId": "c897aeb3-ea2b-412c-85eb-5ca4467368e1",
  "breakAfter": null,
  "canOrderBy": null,
  "canUpdate": null,
  "class": "is-4",
  "createdAt": "2020-08-28T12:10:48.992Z",
  "deletedAt": null,
  "descriptionColumn": "name",
  "filters": null,
  "findType": "sync",
  "format": null,
  "helperTextLabelKey": null,
  "id": "ae569906-605b-4be3-9bf2-03d073fdf759",
  "include": null,
  "labelKey": "language",
  "mask": null,
  "order": "4",
  "placeholder": "Selecione",
  "required": true,
  "updatedAt": "2020-12-25T18:41:01.624Z",
  "valueColumn": "id"
}