{
  "ChildViewId": null,
  "ModelFieldId": "0d8831e8-af76-4d93-8195-a0abd8824e8c",
  "OwnerId": "2cd40d9b-e4b9-41b2-9dc9-c2e9052f4cfc",
  "ViewId": "788935e0-e9a6-49b1-ab5c-522d3e3dd9aa",
  "breakAfter": false,
  "canOrderBy": false,
  "canUpdate": false,
  "class": "is-2",
  "createdAt": "2020-08-28T12:10:49.122Z",
  "deletedAt": null,
  "descriptionColumn": null,
  "filters": null,
  "findType": null,
  "format": null,
  "helperTextLabelKey": "",
  "id": "70700306-0349-4b28-b72b-5978f14b5713",
  "include": null,
  "labelKey": "name",
  "mask": null,
  "order": "0",
  "placeholder": null,
  "required": false,
  "updatedAt": "2020-12-25T22:00:43.856Z",
  "valueColumn": null
}