{
  "ModelId": "d0ff17b6-1af4-407f-87ab-fa49709aca0e",
  "OwnerId": null,
  "createdAt": "2020-08-26T23:54:16.141Z",
  "default": null,
  "deletedAt": null,
  "id": "7dd7c785-dd26-4f86-ad73-283b29bb686a",
  "length": null,
  "modelFieldType": "DataTypes.JSON",
  "name": "query",
  "selectOptions": null,
  "targetModel": null,
  "targetModelAlias": null,
  "type": "json",
  "updatedAt": "2020-08-28T04:36:54.677Z"
}