{
  "ChildViewId": null,
  "ModelFieldId": "1afcf137-9055-493b-90e2-526121ba3d96",
  "OwnerId": null,
  "ViewId": "637e72f8-9426-4796-bfa1-b864faec1aed",
  "breakAfter": null,
  "canOrderBy": null,
  "canUpdate": null,
  "class": "is-2",
  "createdAt": "2020-08-28T12:10:49.168Z",
  "deletedAt": null,
  "descriptionColumn": null,
  "filters": null,
  "findType": null,
  "format": null,
  "helperTextLabelKey": null,
  "id": "3cc4399f-db3a-45d5-a97b-2a4b4cd6f638",
  "include": null,
  "labelKey": "slug",
  "mask": null,
  "order": "4",
  "placeholder": null,
  "required": null,
  "updatedAt": "2020-08-28T12:10:49.168Z",
  "valueColumn": null
}